Using R in Hydrology
…
Appending the Data

The dataset comprises 11 gauging stations from Slovenia. Each discharge time series is stored in a csv file with two columns (time, discharge). Lets read in just a single file:

read_csv2(metadata$filename[1])

## Using ',' as decimal and '.' as grouping mark. Use read_delim() for more control.

## Parsed with column specification:
## cols(
##   time = col_date(format = ""),
##   discharge = col_double()
## )

## # A tibble: 20,088 x 2
##    time       discharge
##    <date>         <dbl>
##  1 1961-01-01     0.110
##  2 1961-01-02     0.110
##  3 1961-01-03     0.120
##  4 1961-01-04     0.570
##  5 1961-01-05     1.00 
##  6 1961-01-06     0.980
##  7 1961-01-07     0.430
##  8 1961-01-08     0.270
##  9 1961-01-09     0.210
## 10 1961-01-10     0.160
## # ... with 20,078 more rows
…
The column data is a list and because it is part of tibble it is called a list-column. Lists are the most versatile data structures in R; anything can be stored in a list. We make use of this list-columns to store discharge time series of varying length.

The data structure of the object slovenia is very flexible an powerful. By using a tibble to hold both data and meta data we ensure that they dont get accidentally mixed up.

Working with the Data

To access the discharge values of the list-column data it has to be unnested.

runoff <- slovenia %>%
  select(station, data) %>%
  unnest(data) %>%
  print()

## # A tibble: 184,812 x 3
##    station time       discharge
##    <chr>   <date>         <dbl>
##  1 Cankova 1961-01-01     0.110
##  2 Cankova 1961-01-02     0.110
##  3 Cankova 1961-01-03     0.120
##  4 Cankova 1961-01-04     0.570
##  5 Cankova 1961-01-05     1.00 
##  6 Cankova 1961-01-06     0.980
##  7 Cankova 1961-01-07     0.430
##  8 Cankova 1961-01-08     0.270
##  9 Cankova 1961-01-09     0.210
## 10 Cankova 1961-01-10     0.160
## # ... with 184,802 more rows
…
